/* XPM */
static const char *const Csignal_xpm[] = {
"150 17 31 1",
" 	c None",
".	c #EF1D0B",
"+	c #EF320B",
"@	c #EE400E",
"#	c #EE4C12",
"$	c #EE590C",
"%	c #EC650D",
"&	c #ED700D",
"*	c #13B027",
"=	c #EC7D0C",
"-	c #30B925",
";	c #EB880B",
">	c #EA9108",
",	c #4BC024",
"'	c #EB9912",
")	c #EBA306",
"!	c #64C923",
"~	c #EAAE08",
"{	c #7ACF25",
"]	c #EAB90A",
"^	c #8ED521",
"/	c #E9C602",
"(	c #A1DB22",
"_	c #ADDF20",
":	c #E9D604",
"<	c #BDE422",
"[	c #E8DF10",
"}	c #CFEA20",
"|	c #E9EA06",
"1	c #E5EF0E",
"2	c #E0EF21",
".........+++@@@@@###$$$%%%&&&&====;;>>>''))))~~~]]]/////::::[||||||1111111111111111222222}}}}}}<<<<<___(((((^^^^^^{{{{{{{!!!!!!,,,,,,,--------********",
".........+++@@@@@###$$$%%%&&&&====;;>>>''))))~~~]]]/////::::[||||||1111111111111111222222}}}}}}<<<<<___(((((^^^^^^{{{{{{{!!!!!!,,,,,,,--------********",
".........+++@@@@@###$$$%%%&&&&====;;>>>''))))~~~]]]/////::::[||||||1111111111111111222222}}}}}}<<<<<___(((((^^^^^^{{{{{{{!!!!!!,,,,,,,--------********",
".........+++@@@@@###$$$%%%&&&&====;;>>>''))))~~~]]]/////::::[||||||1111111111111111222222}}}}}}<<<<<___(((((^^^^^^{{{{{{{!!!!!!,,,,,,,--------********",
".........+++@@@@@###$$$%%%&&&&====;;>>>''))))~~~]]]/////::::[||||||1111111111111111222222}}}}}}<<<<<___(((((^^^^^^{{{{{{{!!!!!!,,,,,,,--------********",
".........+++@@@@@###$$$%%%&&&&====;;>>>''))))~~~]]]/////::::[||||||1111111111111111222222}}}}}}<<<<<___(((((^^^^^^{{{{{{{!!!!!!,,,,,,,--------********",
".........+++@@@@@###$$$%%%&&&&====;;>>>''))))~~~]]]/////::::[||||||1111111111111111222222}}}}}}<<<<<___(((((^^^^^^{{{{{{{!!!!!!,,,,,,,--------********",
".........+++@@@@@###$$$%%%&&&&====;;>>>''))))~~~]]]/////::::[||||||1111111111111111222222}}}}}}<<<<<___(((((^^^^^^{{{{{{{!!!!!!,,,,,,,--------********",
".........+++@@@@@###$$$%%%&&&&====;;>>>''))))~~~]]]/////::::[||||||1111111111111111222222}}}}}}<<<<<___(((((^^^^^^{{{{{{{!!!!!!,,,,,,,--------********",
".........+++@@@@@###$$$%%%&&&&====;;>>>''))))~~~]]]/////::::[||||||1111111111111111222222}}}}}}<<<<<___(((((^^^^^^{{{{{{{!!!!!!,,,,,,,--------********",
".........+++@@@@@###$$$%%%&&&&====;;>>>''))))~~~]]]/////::::[||||||1111111111111111222222}}}}}}<<<<<___(((((^^^^^^{{{{{{{!!!!!!,,,,,,,--------********",
".........+++@@@@@###$$$%%%&&&&====;;>>>''))))~~~]]]/////::::[||||||1111111111111111222222}}}}}}<<<<<___(((((^^^^^^{{{{{{{!!!!!!,,,,,,,--------********",
".........+++@@@@@###$$$%%%&&&&====;;>>>''))))~~~]]]/////::::[||||||1111111111111111222222}}}}}}<<<<<___(((((^^^^^^{{{{{{{!!!!!!,,,,,,,--------********",
".........+++@@@@@###$$$%%%&&&&====;;>>>''))))~~~]]]/////::::[||||||1111111111111111222222}}}}}}<<<<<___(((((^^^^^^{{{{{{{!!!!!!,,,,,,,--------********",
".........+++@@@@@###$$$%%%&&&&====;;>>>''))))~~~]]]/////::::[||||||1111111111111111222222}}}}}}<<<<<___(((((^^^^^^{{{{{{{!!!!!!,,,,,,,--------********",
".........+++@@@@@###$$$%%%&&&&====;;>>>''))))~~~]]]/////::::[||||||1111111111111111222222}}}}}}<<<<<___(((((^^^^^^{{{{{{{!!!!!!,,,,,,,--------********",
".........+++@@@@@###$$$%%%&&&&====;;>>>''))))~~~]]]/////::::[||||||1111111111111111222222}}}}}}<<<<<___(((((^^^^^^{{{{{{{!!!!!!,,,,,,,--------********"};
